{
	"isSuccess": true,
	"data": {
		"current_page": 1,
		"data": [{
			"id": 5863336,
			"serial_number": "B679F0D21C49774426812C2EDB2509C9",
			"prize_group": "1956",
			"multiple": 4,
			"issue": "0278364",
			"title": "前三组三复式",
			"position": "",
			"display_bet_number": "0123456789",
			"is_overprize": 0,
			"lottery_id": 64,
			"coefficient": "0.01",
			"amount": "115.2000",
			"commission": 0,
			"winning_number": ["5", "8", "1", "3", "0"],
			"prize": "5.4",
			"status": 2,
			"bought_at": "2018-10-07 15:14:58",
			"bet_prize_group": null
		}, {
			"id": 5863319,
			"serial_number": "9A1C8608633B5F415F03B5C96D77FF20",
			"prize_group": "1956",
			"multiple": 2,
			"issue": "0278364",
			"title": "中三组三复式",
			"position": "",
			"display_bet_number": "0123456789",
			"is_overprize": 0,
			"lottery_id": 64,
			"coefficient": "0.01",
			"amount": "115.2000",
			"commission": 0,
			"winning_number": ["5", "1", "8", "3", "0"],
			"prize": "3.6",
			"status": 2,
			"bought_at": "2018-10-07 15:14:52",
			"bet_prize_group": null
		}, {
			"id": 5863283,
			"serial_number": "AD271DA55D8F0C90529F69EEEDBD04CE",
			"prize_group": "1956",
			"multiple": 1,
			"issue": "0278364",
			"title": "后三组三复式",
			"position": "",
			"display_bet_number": "0123456789",
			"is_overprize": 0,
			"lottery_id": 64,
			"coefficient": "0.01",
			"amount": "115.2000",
			"commission": 0,
			"winning_number": ["5", "8", "8", "3", "0"],
			"prize": "1.8",
			"status": 0,
			"bought_at": "2018-10-07 15:14:46",
			"bet_prize_group": null
		}, {
			"id": 5863223,
			"serial_number": "6D61BF0DD2CB4EE140F69B0A23D72AE3",
			"prize_group": "1956",
			"multiple": 1,
			"issue": "181007056",
			"title": "后三组三复式",
			"position": "",
			"display_bet_number": "0123456789",
			"is_overprize": 0,
			"lottery_id": 1,
			"coefficient": "0.01",
			"amount": "115.2000",
			"commission": 0,
			"winning_number": ["3", "8", "1", "7", "1"],
			"prize": "417.280000",
			"status": 3,
			"bought_at": "2018-10-07 15:14:33",
			"bet_prize_group": null
		}, {
			"id": 5863195,
			"serial_number": "28ED6B5F9CFEA8828CD93D3EA39DA384",
			"prize_group": "1956",
			"multiple": 1,
			"issue": "181007056",
			"title": "中三组三复式",
			"position": "",
			"display_bet_number": "0123456789",
			"is_overprize": 0,
			"lottery_id": 1,
			"coefficient": "0.01",
			"amount": "115.2000",
			"commission": 0,
			"winning_number": ["3", "8", "1", "7", "1"],
			"prize": "0.0000",
			"status": 2,
			"bought_at": "2018-10-07 15:14:27",
			"bet_prize_group": null
		}, {
			"id": 5863168,
			"serial_number": "F4B4A06014AEA08B526503B585ED4535",
			"prize_group": "1956",
			"multiple": 2,
			"issue": "181007056",
			"title": "前三组三复式",
			"position": "",
			"display_bet_number": "0123456789",
			"is_overprize": 0,
			"lottery_id": 1,
			"coefficient": "0.01",
			"amount": "115.2000",
			"commission": 0,
			"winning_number": ["3", "8", "1", "7", "1"],
			"prize": "0.0000",
			"status": 2,
			"bought_at": "2018-10-07 15:14:22",
			"bet_prize_group": null
		}, {
			"id": 5863132,
			"serial_number": "D9741C94D5C9C1F8A7056B18D18A165F",
			"prize_group": "1956",
			"multiple": 3,
			"issue": "18100732",
			"title": "后三组三复式",
			"position": "",
			"display_bet_number": "0123456789",
			"is_overprize": 0,
			"lottery_id": 6,
			"coefficient": "0.01",
			"amount": "115.2000",
			"commission": 0,
			"winning_number": ["9", "4", "5", "7", "7"],
			"prize": "417.280000",
			"status": 2,
			"bought_at": "2018-10-07 15:14:09",
			"bet_prize_group": null
		}, {
			"id": 5863122,
			"serial_number": "A6C642A673BF37A4DD6E6B59165F135D",
			"prize_group": "1956",
			"multiple": 1,
			"issue": "18100732",
			"title": "中三组三复式",
			"position": "",
			"display_bet_number": "0123456789",
			"is_overprize": 0,
			"lottery_id": 6,
			"coefficient": "0.01",
			"amount": "115.2000",
			"commission": 0,
			"winning_number": ["9", "4", "5", "0", "7"],
			"prize": "0.0000",
			"status": 2,
			"bought_at": "2018-10-07 15:14:03",
			"bet_prize_group": null
		}, {
			"id": 5863099,
			"serial_number": "6A8F249D9603EA0BDE197EE3544141C7",
			"prize_group": "1956",
			"multiple": 1,
			"issue": "18100732",
			"title": "前三组三复式",
			"position": "",
			"display_bet_number": "0123456789",
			"is_overprize": 0,
			"lottery_id": 6,
			"coefficient": "0.01",
			"amount": "115.2000",
			"commission": 0,
			"winning_number": ["9", "4", "5", "7", "7"],
			"prize": "0.0000",
			"status": 2,
			"bought_at": "2018-10-07 15:13:55",
			"bet_prize_group": null
		}, {
			"id": 5862959,
			"serial_number": "65F8DACC8538A9C27D46E8F5481EB098",
			"prize_group": "1956",
			"multiple": 1,
			"issue": "0278364",
			"title": "后三组三复式",
			"position": "",
			"display_bet_number": "0123456789",
			"is_overprize": 0,
			"lottery_id": 3,
			"coefficient": "0.01",
			"amount": "1.8000",
			"commission": 0,
			"winning_number": ["5", "8", "8", "3", "0"],
			"prize": "0.0000",
			"status": 2,
			"bought_at": "2018-10-07 15:13:28",
			"bet_prize_group": null
		}, {
			"id": 5862930,
			"serial_number": "0DCBAA7CED32CCE99EB1A4AE20406DCA",
			"prize_group": "1956",
			"multiple": 3,
			"issue": "0278364",
			"title": "中三组三复式",
			"position": "",
			"display_bet_number": "0123456789",
			"is_overprize": 0,
			"lottery_id": 3,
			"coefficient": "0.01",
			"amount": "5.4000",
			"commission": 0,
			"winning_number": ["5", "8", "8", "3", "0"],
			"prize": "19.560000",
			"status": 3,
			"bought_at": "2018-10-07 15:13:20",
			"bet_prize_group": null
		}, {
			"id": 5862917,
			"serial_number": "8681BF154666247F672D464054876AB7",
			"prize_group": "1956",
			"multiple": 1,
			"issue": "0278364",
			"title": "前三组三复式",
			"position": "",
			"display_bet_number": "0123456789",
			"is_overprize": 0,
			"lottery_id": 3,
			"coefficient": "0.01",
			"amount": "5.4000",
			"commission": 0,
			"winning_number": ["5", "8", "8", "3", "0"],
			"prize": "19.560000",
			"status": 3,
			"bought_at": "2018-10-07 15:13:16",
			"bet_prize_group": null
		}, {
			"id": 5862804,
			"serial_number": "54543CFC99C853CF20F1B293DFEE48B4",
			"prize_group": "1956",
			"multiple": 4,
			"issue": "181007056",
			"title": "后三组三复式",
			"position": "",
			"display_bet_number": "0123456789",
			"is_overprize": 0,
			"lottery_id": 1,
			"coefficient": "0.01",
			"amount": "7.2000",
			"commission": 0,
			"winning_number": ["3", "8", "1", "7", "1"],
			"prize": "26.080000",
			"status": 3,
			"bought_at": "2018-10-07 15:12:1",
			"bet_prize_group": null
		}, {
			"id": 5862723,
			"serial_number": "D13B6BBC74CA9BEA3947FD39A985B18B",
			"prize_group": "1956",
			"multiple": 4,
			"issue": "181007056",
			"title": "中三组三复式",
			"position": "",
			"display_bet_number": "0123456789",
			"is_overprize": 0,
			"lottery_id": 1,
			"coefficient": "0.01",
			"amount": "7.2000",
			"commission": 0,
			"winning_number": ["3", "8", "1", "7", "1"],
			"prize": "0.0000",
			"status": 2,
			"bought_at": "2018-10-07 15:12:19",
			"bet_prize_group": null
		}, {
			"id": 5862695,
			"serial_number": "EC80C68ACD879AF9C878F09B99547290",
			"prize_group": "1956",
			"multiple": 1,
			"issue": "181007056",
			"title": "前三组三复式",
			"position": "",
			"display_bet_number": "0123456789",
			"is_overprize": 0,
			"lottery_id": 1,
			"coefficient": "0.01",
			"amount": "421.2000",
			"commission": 0,
			"winning_number": ["3", "8", "1", "7", "1"],
			"prize": "0.0000",
			"status": 2,
			"bought_at": "2018-10-07 15:12:09",
			"bet_prize_group": null
		}, {
			"id": 5862534,
			"serial_number": "A0ACFF195F758979BA03C46EDDEFCF8B",
			"prize_group": "1956",
			"multiple": 1,
			"issue": "18100732",
			"title": "后三组三复式",
			"position": "",
			"display_bet_number": "0123456789",
			"is_overprize": 0,
			"lottery_id": 6,
			"coefficient": "0.01",
			"amount": "1.8000",
			"commission": 0,
			"winning_number": ["9", "4", "5", "7", "7"],
			"prize": "6.520000",
			"status": 3,
			"bought_at": "2018-10-07 15:11:25",
			"bet_prize_group": null
		}, {
			"id": 5862512,
			"serial_number": "0FECCA6E9AFF0866F78DE7C608256F6E",
			"prize_group": "1956",
			"multiple": 6,
			"issue": "18100732",
			"title": "中三组三复式",
			"position": "",
			"display_bet_number": "0123456789",
			"is_overprize": 0,
			"lottery_id": 6,
			"coefficient": "0.01",
			"amount": "10.8000",
			"commission": 0,
			"winning_number": ["9", "4", "5", "7", "7"],
			"prize": "0.0000",
			"status": 2,
			"bought_at": "2018-10-07 15:11:17",
			"bet_prize_group": null
		}, {
			"id": 5862489,
			"serial_number": "65F8F73C91BC46995D84E184F07219D4",
			"prize_group": "1956",
			"multiple": 3,
			"issue": "18100732",
			"title": "前三组三复式",
			"position": "",
			"display_bet_number": "0123456789",
			"is_overprize": 0,
			"lottery_id": 6,
			"coefficient": "0.01",
			"amount": "5.4000",
			"commission": 0,
			"winning_number": ["9", "4", "5", "7", "7"],
			"prize": "0.0000",
			"status": 2,
			"bought_at": "2018-10-07 15:11:09",
			"bet_prize_group": null
		},{
			"id": 5863336,
			"serial_number": "B679F0D21C49774426812C2EDB2509C9",
			"prize_group": "1956",
			"multiple": 1,
			"issue": "0278364",
			"title": "后三组三复式",
			"position": "",
			"display_bet_number": "0123456789",
			"is_overprize": 0,
			"lottery_id": 3,
			"coefficient": "0.01",
			"amount": "115.2000",
			"commission": 0,
			"winning_number": ["5", "8", "8", "3", "0"],
			"prize": "2.3",
			"status": 3,
			"bought_at": "2018-10-07 15:14:58",
			"bet_prize_group": null
		}, {
			"id": 5863319,
			"serial_number": "9A1C8608633B5F415F03B5C96D77FF20",
			"prize_group": "1956",
			"multiple": 3,
			"issue": "0278364",
			"title": "中三组三复式",
			"position": "",
			"display_bet_number": "0123456789",
			"is_overprize": 0,
			"lottery_id": 3,
			"coefficient": "0.01",
			"amount": "115.2000",
			"commission": 0,
			"winning_number": ["5", "8", "8", "3", "0"],
			"prize": "417.280000",
			"status": 3,
			"bought_at": "2018-10-07 15:14:52",
			"bet_prize_group": null
		}, {
			"id": 5863283,
			"serial_number": "AD271DA55D8F0C90529F69EEEDBD04CE",
			"prize_group": "1956",
			"multiple": 3,
			"issue": "0278364",
			"title": "前三组三复式",
			"position": "",
			"display_bet_number": "0123456789",
			"is_overprize": 0,
			"lottery_id": 3,
			"coefficient": "0.01",
			"amount": "115.2000",
			"commission": 0,
			"winning_number": ["5", "8", "8", "3", "0"],
			"prize": "417.280000",
			"status": 3,
			"bought_at": "2018-10-07 15:14:46",
			"bet_prize_group": null
		}, {
			"id": 5863223,
			"serial_number": "6D61BF0DD2CB4EE140F69B0A23D72AE3",
			"prize_group": "1956",
			"multiple": 1,
			"issue": "181007056",
			"title": "后三组三复式",
			"position": "",
			"display_bet_number": "0123456789",
			"is_overprize": 0,
			"lottery_id": 1,
			"coefficient": "0.01",
			"amount": "115.2000",
			"commission": 0,
			"winning_number": ["3", "8", "1", "7", "1"],
			"prize": "417.280000",
			"status": 3,
			"bought_at": "2018-10-07 15:14:33",
			"bet_prize_group": null
		}, {
			"id": 5863195,
			"serial_number": "28ED6B5F9CFEA8828CD93D3EA39DA384",
			"prize_group": "1956",
			"multiple": 1,
			"issue": "181007056",
			"title": "中三组三复式",
			"position": "",
			"display_bet_number": "0123456789",
			"is_overprize": 0,
			"lottery_id": 1,
			"coefficient": "0.01",
			"amount": "115.2000",
			"commission": 0,
			"winning_number": ["3", "8", "1", "7", "1"],
			"prize": "0.0000",
			"status": 2,
			"bought_at": "2018-10-07 15:14:27",
			"bet_prize_group": null
		}, {
			"id": 5863168,
			"serial_number": "F4B4A06014AEA08B526503B585ED4535",
			"prize_group": "1956",
			"multiple": 2,
			"issue": "181007056",
			"title": "前三组三复式",
			"position": "",
			"display_bet_number": "0123456789",
			"is_overprize": 0,
			"lottery_id": 1,
			"coefficient": "0.01",
			"amount": "115.2000",
			"commission": 0,
			"winning_number": ["3", "8", "1", "7", "1"],
			"prize": "0.0000",
			"status": 2,
			"bought_at": "2018-10-07 15:14:22",
			"bet_prize_group": null
		}, {
			"id": 5863132,
			"serial_number": "D9741C94D5C9C1F8A7056B18D18A165F",
			"prize_group": "1956",
			"multiple": 3,
			"issue": "18100732",
			"title": "后三组三复式",
			"position": "",
			"display_bet_number": "0123456789",
			"is_overprize": 0,
			"lottery_id": 6,
			"coefficient": "0.01",
			"amount": "115.2000",
			"commission": 0,
			"winning_number": ["9", "4", "5", "7", "7"],
			"prize": "417.280000",
			"status": 3,
			"bought_at": "2018-10-07 15:14:09",
			"bet_prize_group": null
		}, {
			"id": 5863122,
			"serial_number": "A6C642A673BF37A4DD6E6B59165F135D",
			"prize_group": "1956",
			"multiple": 1,
			"issue": "18100732",
			"title": "中三组三复式",
			"position": "",
			"display_bet_number": "0123456789",
			"is_overprize": 0,
			"lottery_id": 6,
			"coefficient": "0.01",
			"amount": "115.2000",
			"commission": 0,
			"winning_number": ["9", "4", "5", "7", "7"],
			"prize": "0.0000",
			"status": 2,
			"bought_at": "2018-10-07 15:14:03",
			"bet_prize_group": null
		}, {
			"id": 5863099,
			"serial_number": "6A8F249D9603EA0BDE197EE3544141C7",
			"prize_group": "1956",
			"multiple": 1,
			"issue": "18100732",
			"title": "前三组三复式",
			"position": "",
			"display_bet_number": "0123456789",
			"is_overprize": 0,
			"lottery_id": 6,
			"coefficient": "0.01",
			"amount": "115.2000",
			"commission": 0,
			"winning_number": ["9", "4", "5", "7", "7"],
			"prize": "0.0000",
			"status": 2,
			"bought_at": "2018-10-07 15:13:55",
			"bet_prize_group": null
		}, {
			"id": 5862959,
			"serial_number": "65F8DACC8538A9C27D46E8F5481EB098",
			"prize_group": "1956",
			"multiple": 1,
			"issue": "0278364",
			"title": "后三组三复式",
			"position": "",
			"display_bet_number": "0123456789",
			"is_overprize": 0,
			"lottery_id": 3,
			"coefficient": "0.01",
			"amount": "1.8000",
			"commission": 0,
			"winning_number": ["5", "8", "8", "3", "0"],
			"prize": "0.0000",
			"status": 2,
			"bought_at": "2018-10-07 15:13:28",
			"bet_prize_group": null
		}, {
			"id": 5862930,
			"serial_number": "0DCBAA7CED32CCE99EB1A4AE20406DCA",
			"prize_group": "1956",
			"multiple": 3,
			"issue": "0278364",
			"title": "中三组三复式",
			"position": "",
			"display_bet_number": "0123456789",
			"is_overprize": 0,
			"lottery_id": 3,
			"coefficient": "0.01",
			"amount": "5.4000",
			"commission": 0,
			"winning_number": ["5", "8", "8", "3", "0"],
			"prize": "19.560000",
			"status": 3,
			"bought_at": "2018-10-07 15:13:20",
			"bet_prize_group": null
		}, {
			"id": 5862917,
			"serial_number": "8681BF154666247F672D464054876AB7",
			"prize_group": "1956",
			"multiple": 1,
			"issue": "0278364",
			"title": "前三组三复式",
			"position": "",
			"display_bet_number": "0123456789",
			"is_overprize": 0,
			"lottery_id": 3,
			"coefficient": "0.01",
			"amount": "5.4000",
			"commission": 0,
			"winning_number": ["5", "8", "8", "3", "0"],
			"prize": "19.560000",
			"status": 3,
			"bought_at": "2018-10-07 15:13:16",
			"bet_prize_group": null
		}, {
			"id": 5862804,
			"serial_number": "54543CFC99C853CF20F1B293DFEE48B4",
			"prize_group": "1956",
			"multiple": 4,
			"issue": "181007056",
			"title": "后三组三复式",
			"position": "",
			"display_bet_number": "0123456789",
			"is_overprize": 0,
			"lottery_id": 1,
			"coefficient": "0.01",
			"amount": "7.2000",
			"commission": 0,
			"winning_number": ["3", "8", "1", "7", "1"],
			"prize": "26.080000",
			"status": 3,
			"bought_at": "2018-10-07 15:12:38",
			"bet_prize_group": null
		}, {
			"id": 5862723,
			"serial_number": "D13B6BBC74CA9BEA3947FD39A985B18B",
			"prize_group": "1956",
			"multiple": 4,
			"issue": "181007056",
			"title": "中三组三复式",
			"position": "",
			"display_bet_number": "0123456789",
			"is_overprize": 0,
			"lottery_id": 1,
			"coefficient": "0.01",
			"amount": "7.2000",
			"commission": 0,
			"winning_number": ["3", "8", "1", "7", "1"],
			"prize": "0.0000",
			"status": 2,
			"bought_at": "2018-10-07 15:12:19",
			"bet_prize_group": null
		}, {
			"id": 5862695,
			"serial_number": "EC80C68ACD879AF9C878F09B99547290",
			"prize_group": "1956",
			"multiple": 1,
			"issue": "181007056",
			"title": "前三组三复式",
			"position": "",
			"display_bet_number": "0123456789",
			"is_overprize": 0,
			"lottery_id": 1,
			"coefficient": "0.01",
			"amount": "421.2000",
			"commission": 0,
			"winning_number": ["3", "8", "1", "7", "1"],
			"prize": "0.0000",
			"status": 2,
			"bought_at": "2018-10-07 15:12:09",
			"bet_prize_group": null
		}, {
			"id": 5862534,
			"serial_number": "A0ACFF195F758979BA03C46EDDEFCF8B",
			"prize_group": "1956",
			"multiple": 1,
			"issue": "18100732",
			"title": "后三组三复式",
			"position": "",
			"display_bet_number": "0123456789",
			"is_overprize": 0,
			"lottery_id": 6,
			"coefficient": "0.01",
			"amount": "1.8000",
			"commission": 0,
			"winning_number": ["9", "4", "5", "7", "7"],
			"prize": "6.520000",
			"status": 3,
			"bought_at": "2018-10-07 15:11:25",
			"bet_prize_group": null
		}, {
			"id": 5862512,
			"serial_number": "0FECCA6E9AFF0866F78DE7C608256F6E",
			"prize_group": "1956",
			"multiple": 6,
			"issue": "18100732",
			"title": "中三组三复式",
			"position": "",
			"display_bet_number": "0123456789",
			"is_overprize": 0,
			"lottery_id": 6,
			"coefficient": "0.01",
			"amount": "10.8000",
			"commission": 0,
			"winning_number": ["9", "4", "5", "7", "7"],
			"prize": "0.0000",
			"status": 2,
			"bought_at": "2018-10-07 15:11:17",
			"bet_prize_group": null
		}, {
			"id": 5862489,
			"serial_number": "65F8F73C91BC46995D84E184F07219D4",
			"prize_group": "1956",
			"multiple": 3,
			"issue": "18100732",
			"title": "前三组三复式",
			"position": "",
			"display_bet_number": "0123456789",
			"is_overprize": 0,
			"lottery_id": 6,
			"coefficient": "0.01",
			"amount": "5.4000",
			"commission": 0,
			"winning_number": ["9", "4", "5", "7", "7"],
			"prize": "0.0000",
			"status": 2,
			"bought_at": "2018-10-07 15:11:09",
			"bet_prize_group": null
		}],
		"first_page_url": "https:\/\/api.chunqiu1.com\/reports\/project?page=1",
		"from": 1,
		"last_page": 14,
		"last_page_url": "https:\/\/api.chunqiu1.com\/reports\/project?page=14",
		"next_page_url": "https:\/\/api.chunqiu1.com\/reports\/project?page=2",
		"path": "https:\/\/api.chunqiu1.com\/reports\/project",
		"per_page": "20",
		"prev_page_url": null,
		"to": 20,
		"total": 277
	}
}